import com.divergentsl.erp.opportunity.mongodb.documents.FibcEnquiry;
import com.divergentsl.erp.opportunity.domains.TopBottomStypeProperties;
import com.divergentsl.erp.opportunity.domains.Attributes;
import com.divergentsl.erp.opportunity.domains.FibcQuotation;
import com.divergentsl.erp.opportunity.domains.FibcComponent;
import java.util.List;		
import java.util.ArrayList;
import com.divergentsl.erp.opportunity.drl.UPanelRules;

rule "Rules For Row Material"
when
    fibcEnquiry : FibcEnquiry(frontStyle : frontStyle)
then
	if(frontStyle.getType() != null){
		String rowMaterialType = UPanelRules.getStringValue(fibcEnquiry.getFibcAttributes() , 'rm-type');
		double cost =0;
		if(rowMaterialType.equals('PP')){cost=500;}
		if(rowMaterialType.equals('HDPE')){cost=550;}
		if(rowMaterialType.equals('LDPE')){cost=600;}
		if(rowMaterialType.equals('LLDPE')){cost=650;}
		UPanelRules.fibcCostQuotation(fibcEnquiry ,'Row Material', cost,'Per Metric Ton',cost,cost*fibcEnquiry.getInr()/fibcEnquiry.getUsd(),cost);
	}
end


rule "Freight"
when
    fibcEnquiry : FibcEnquiry()
then
	if(fibcEnquiry.getDroolRuleName().equals('Freight')){
		String freightType ="";
		double cost=0;
		if(freightType.equals('FOB')){
			cost=600;
		}
		UPanelRules.fibcCostQuotation(fibcEnquiry ,'Freight', cost,'Per Metric Ton',cost,cost*fibcEnquiry.getInr()/fibcEnquiry.getUsd(),cost);
	}
end


rule "Pallet"
when
    fibcEnquiry : FibcEnquiry()
then
	if(fibcEnquiry.getDroolRuleName().equals('Pallet')){
		String palletType ="";
		for (FibcComponent extras : fibcEnquiry.getExtras()) {
				if (extras.getName().equals('Pallet')) {
					palletType = UPanelRules.getStringValue(extras.getAttributes() , 'pallet_type');
				}
		}
		
		double cost=0;
		if(palletType.equals('2 way Pallet')){
			cost=600;
		}
		if(palletType.equals('4 way Pallet')){
			cost=800;
		}
		UPanelRules.fibcCostQuotation(fibcEnquiry ,'Pallet', cost,'Per Metric Ton',cost,cost*fibcEnquiry.getInr()/fibcEnquiry.getUsd(),cost);
	}
end


rule "Rules For Conversion Cost"
when
    fibcEnquiry : FibcEnquiry()
then
	double cost=650;
	UPanelRules.fibcCostQuotation(fibcEnquiry ,'Conversion Cost', cost,'Per Metric Ton',cost,cost*fibcEnquiry.getInr()/fibcEnquiry.getUsd(),cost);
end


rule "Rules For FS/SKIRT COST"
when
    fibcEnquiry : FibcEnquiry(frontStyle : frontStyle)
then
	System.out.println(drools.getRule().getName() + " got fired");
	double cost=50;
	if(frontStyle.getType() != null){
		if(frontStyle.getType().equals('Filling Spout') || frontStyle.getType().equals('Top Skirt')||
			frontStyle.getType().equals('Filling Spout + Flap') ||
			frontStyle.getType().equals('Top Skirt + Flap') || frontStyle.getType().equals('Filling Spout + Iris +Flap')||
			frontStyle.getType().equals('Top Skirt + Iris + Flap') || frontStyle.getType().equals('Top Skirt + Petal + Flap') ||
			frontStyle.getType().equals('Filling Spout + Petal + Flap')){
			UPanelRules.fibcCostQuotation(fibcEnquiry ,'FS/SKIRT', cost,'Per Metric Ton',cost,cost*fibcEnquiry.getInr()/fibcEnquiry.getUsd(),cost);
		}
	}
end


rule "Rules For DS/SKIRT COST"
when
    fibcEnquiry : FibcEnquiry(bottomStyle : bottomStyle)
then
	System.out.println(drools.getRule().getName() + " got fired");
	double cost=50;
	if(bottomStyle.getType() != null){
		if(bottomStyle.getType().equals('Discharge Spout') || bottomStyle.getType().equals('Bottom Skirt')||
			bottomStyle.getType().equals('Discharge Spout + Flap') || bottomStyle.getType().equals('Bottom Skirt + Flap') ||
			bottomStyle.getType().equals('Discharge Spout + Iris + Flap') ||bottomStyle.getType().equals('Discharge Spout + Petal + Flap') ||
			 bottomStyle.getType().equals('Bottom Skirt + Iris + Flap')||bottomStyle.getType().equals('Bottom Skirt + Petal + Flap') ){
			UPanelRules.fibcCostQuotation(fibcEnquiry ,'DS/SKIRT', cost,'Per Metric Ton',cost,cost*fibcEnquiry.getInr()/fibcEnquiry.getUsd(),cost);
		}
	}
end

rule "Rules For LC Cost"
when
    fibcEnquiry : FibcEnquiry()
then
	System.out.println(drools.getRule().getName() + " got fired");
	double cost=0;
	//fibcEnquiry.fibcCostQuotation(fibcEnquiry ,'LC Cost', cost,'Per Metric Ton');
end

