com/divergentsl/erp/opportunity/exceptions/OpportunityValidationException.class
com/divergentsl/erp/opportunity/repository/FibcCertificateRepository.class
com/divergentsl/erp/opportunity/domains/FibcLinerQuotation.class
com/divergentsl/erp/opportunity/constants/UrlConstants.class
com/divergentsl/erp/opportunity/domains/FileThumbnail.class
com/divergentsl/erp/opportunity/domains/FibcComponent.class
com/divergentsl/erp/opportunity/mongodb/documents/FibcLoomDetailsDocument.class
com/divergentsl/erp/opportunity/domains/FibcPrintingQuotation.class
com/divergentsl/erp/opportunity/domains/FibcCostQuotation.class
com/divergentsl/erp/opportunity/repository/FibcPricingPolicyRepository.class
com/divergentsl/erp/opportunity/repository/CurrencyRepository.class
com/divergentsl/erp/opportunity/configs/DroolsXmlNamespaceConfig.class
com/divergentsl/erp/opportunity/repository/FibcModelRepository.class
com/divergentsl/erp/opportunity/mongodb/documents/CurrencyDetails.class
com/divergentsl/erp/opportunity/ServletInitializer.class
com/divergentsl/erp/opportunity/repository/FibcPreviewDetailsRepository.class
com/divergentsl/erp/opportunity/resources/OpportunityResources.class
com/divergentsl/erp/opportunity/configs/CorsConfig.class
com/divergentsl/erp/opportunity/domains/TopBottomStypeProperties.class
com/divergentsl/erp/opportunity/mongodb/documents/FibcPricingPolicy.class
com/divergentsl/erp/opportunity/repository/FibcLoomDetailsRepository.class
com/divergentsl/erp/opportunity/domains/FileUploadUtils.class
com/divergentsl/erp/opportunity/domains/FibcQuotation.class
com/divergentsl/erp/opportunity/services/EmailSenderJobService.class
com/divergentsl/erp/opportunity/domains/FibcValidation.class
com/divergentsl/erp/opportunity/services/impl/OpportunityServiceImpl.class
com/divergentsl/erp/opportunity/domains/DropdownValues.class
com/divergentsl/erp/opportunity/mongodb/documents/FibcCertificate.class
com/divergentsl/erp/opportunity/OpportunityApplication.class
com/divergentsl/erp/opportunity/mongodb/documents/FibcPreviewDetails.class
com/divergentsl/erp/opportunity/services/impl/EmailSenderJobServiceImpl.class
com/divergentsl/erp/opportunity/configs/WebConfig.class
com/divergentsl/erp/opportunity/scheduler/CurrencyScheduler.class
com/divergentsl/erp/opportunity/drl/UPanelRules.class
com/divergentsl/erp/opportunity/repository/BeltOrderSpecificationRepository.class
com/divergentsl/erp/opportunity/mongodb/documents/BeltOrderSpecificationDocument.class
com/divergentsl/erp/opportunity/mongodb/documents/FibcEnquiry.class
com/divergentsl/erp/opportunity/services/OpportunityService.class
com/divergentsl/erp/opportunity/repository/FibcEnquiryRepository.class
com/divergentsl/erp/opportunity/domains/LoopStyleProperties.class
com/divergentsl/erp/opportunity/handlers/GlobalExceptionHandler.class
com/divergentsl/erp/opportunity/domains/FibcQuotationAttributes.class
com/divergentsl/erp/opportunity/domains/Attributes.class
com/divergentsl/erp/opportunity/mongodb/documents/FibcModel.class
com/divergentsl/erp/opportunity/configs/DroolsJavaConfig.class
com/divergentsl/erp/opportunity/domains/ErrorBean.class
